<?xml version="1.0" encoding="UTF-8"?>
<glyph name="_ch3" format="2">
	<advance height="2048" width="930"/>
	<outline>
		<contour>
			<point x="882" y="-594" type="curve" smooth="yes"/>
			<point x="911" y="-572"/>
			<point x="930" y="-540"/>
			<point x="930" y="-499" type="curve" smooth="yes"/>
			<point x="930" y="-472"/>
			<point x="921" y="-449"/>
			<point x="904" y="-428" type="curve" smooth="yes"/>
			<point x="887" y="-406"/>
			<point x="863" y="-390"/>
			<point x="835" y="-379" type="curve"/>
			<point x="854" y="-368"/>
			<point x="871" y="-354"/>
			<point x="885" y="-337" type="curve" smooth="yes"/>
			<point x="914" y="-303"/>
			<point x="930" y="-261"/>
			<point x="930" y="-217" type="curve" smooth="yes"/>
			<point x="930" y="-172"/>
			<point x="911" y="-129"/>
			<point x="876" y="-98" type="curve" smooth="yes"/>
			<point x="825" y="-53"/>
			<point x="751" y="-36"/>
			<point x="684" y="-36" type="curve" smooth="yes"/>
			<point x="622" y="-36"/>
			<point x="549" y="-49"/>
			<point x="499" y="-89" type="curve"/>
			<point x="442" y="-44"/>
			<point x="353" y="-36"/>
			<point x="282" y="-36" type="curve" smooth="yes"/>
			<point x="211" y="-36"/>
			<point x="124" y="-48"/>
			<point x="65" y="-91" type="curve" smooth="yes"/>
			<point x="21" y="-123"/>
			<point x="0" y="-168"/>
			<point x="0" y="-222" type="curve" smooth="yes"/>
			<point x="0" y="-266"/>
			<point x="16" y="-297"/>
			<point x="41" y="-319" type="curve" smooth="yes"/>
			<point x="72" y="-345"/>
			<point x="118" y="-356"/>
			<point x="167" y="-356" type="curve" smooth="yes"/>
			<point x="209" y="-356"/>
			<point x="254" y="-344"/>
			<point x="284" y="-320" type="curve" smooth="yes"/>
			<point x="308" y="-301"/>
			<point x="325" y="-274"/>
			<point x="325" y="-239" type="curve" smooth="yes"/>
			<point x="325" y="-203"/>
			<point x="307" y="-173"/>
			<point x="278" y="-152" type="curve" smooth="yes"/>
			<point x="250" y="-132"/>
			<point x="212" y="-122"/>
			<point x="174" y="-122" type="curve" smooth="yes"/>
			<point x="166" y="-122"/>
			<point x="158" y="-122"/>
			<point x="150" y="-123" type="curve"/>
			<point x="162" y="-114"/>
			<point x="178" y="-107"/>
			<point x="194" y="-103" type="curve" smooth="yes"/>
			<point x="217" y="-97"/>
			<point x="243" y="-95"/>
			<point x="265" y="-95" type="curve" smooth="yes"/>
			<point x="312" y="-95"/>
			<point x="370" y="-100"/>
			<point x="405" y="-134" type="curve" smooth="yes"/>
			<point x="428" y="-156"/>
			<point x="438" y="-185"/>
			<point x="438" y="-216" type="curve" smooth="yes"/>
			<point x="438" y="-326" type="line" smooth="yes"/>
			<point x="438" y="-350"/>
			<point x="481" y="-356"/>
			<point x="498" y="-356" type="curve" smooth="yes"/>
			<point x="515" y="-356"/>
			<point x="560" y="-350"/>
			<point x="560" y="-326" type="curve" smooth="yes"/>
			<point x="560" y="-216" type="line" smooth="yes"/>
			<point x="560" y="-185"/>
			<point x="571" y="-153"/>
			<point x="594" y="-130" type="curve" smooth="yes"/>
			<point x="614" y="-109"/>
			<point x="644" y="-95"/>
			<point x="681" y="-95" type="curve" smooth="yes"/>
			<point x="713" y="-95"/>
			<point x="745" y="-106"/>
			<point x="768" y="-127" type="curve" smooth="yes"/>
			<point x="795" y="-150"/>
			<point x="809" y="-186"/>
			<point x="808" y="-221" type="curve" smooth="yes"/>
			<point x="807" y="-280"/>
			<point x="771" y="-328"/>
			<point x="719" y="-353" type="curve" smooth="yes"/>
			<point x="658" y="-382"/>
			<point x="580" y="-383"/>
			<point x="513" y="-383" type="curve" smooth="yes"/>
			<point x="467" y="-383"/>
			<point x="420" y="-382"/>
			<point x="375" y="-381" type="curve" smooth="yes"/>
			<point x="346" y="-380"/>
			<point x="300" y="-377"/>
			<point x="251" y="-377" type="curve" smooth="yes"/>
			<point x="203" y="-377"/>
			<point x="150" y="-380"/>
			<point x="106" y="-392" type="curve" smooth="yes"/>
			<point x="47" y="-408"/>
			<point x="2" y="-440"/>
			<point x="2" y="-499" type="curve" smooth="yes"/>
			<point x="2" y="-617"/>
			<point x="144" y="-636"/>
			<point x="235" y="-636" type="curve" smooth="yes"/>
			<point x="302" y="-636"/>
			<point x="367" y="-624"/>
			<point x="428" y="-601" type="curve" smooth="yes"/>
			<point x="477" y="-583"/>
			<point x="524" y="-558"/>
			<point x="569" y="-526" type="curve"/>
			<point x="576" y="-558"/>
			<point x="593" y="-583"/>
			<point x="617" y="-600" type="curve" smooth="yes"/>
			<point x="649" y="-624"/>
			<point x="693" y="-636"/>
			<point x="740" y="-636" type="curve" smooth="yes"/>
			<point x="790" y="-636"/>
			<point x="841" y="-625"/>
		</contour>
		<contour>
			<point x="168" y="-297" type="curve" smooth="yes"/>
			<point x="138" y="-297"/>
			<point x="117" y="-267"/>
			<point x="117" y="-240" type="curve" smooth="yes"/>
			<point x="117" y="-212"/>
			<point x="137" y="-181"/>
			<point x="167" y="-181" type="curve" smooth="yes"/>
			<point x="197" y="-181"/>
			<point x="216" y="-211"/>
			<point x="216" y="-239" type="curve" smooth="yes"/>
			<point x="216" y="-266"/>
			<point x="197" y="-297"/>
		</contour>
		<contour>
			<point x="742" y="-577" type="curve" smooth="yes"/>
			<point x="703" y="-577"/>
			<point x="678" y="-536"/>
			<point x="679" y="-499" type="curve" smooth="yes"/>
			<point x="680" y="-462"/>
			<point x="703" y="-423"/>
			<point x="743" y="-423" type="curve" smooth="yes"/>
			<point x="783" y="-423"/>
			<point x="807" y="-462"/>
			<point x="807" y="-498" type="curve" smooth="yes"/>
			<point x="807" y="-535"/>
			<point x="784" y="-577"/>
		</contour>
		<contour>
			<point x="216" y="-578" type="curve" smooth="yes"/>
			<point x="172" y="-578"/>
			<point x="121" y="-557"/>
			<point x="121" y="-506" type="curve" smooth="yes"/>
			<point x="121" y="-470"/>
			<point x="141" y="-453"/>
			<point x="167" y="-445" type="curve" smooth="yes"/>
			<point x="198" y="-436"/>
			<point x="233" y="-436"/>
			<point x="265" y="-436" type="curve" smooth="yes"/>
			<point x="306" y="-435"/>
			<point x="348" y="-439"/>
			<point x="374" y="-440" type="curve" smooth="yes"/>
			<point x="406" y="-441"/>
			<point x="439" y="-442"/>
			<point x="473" y="-442" type="curve" smooth="yes"/>
			<point x="555" y="-442" type="line"/>
			<point x="534" y="-460"/>
			<point x="510" y="-477"/>
			<point x="485" y="-493" type="curve" smooth="yes"/>
			<point x="447" y="-517"/>
			<point x="412" y="-535"/>
			<point x="377" y="-549" type="curve" smooth="yes"/>
			<point x="329" y="-568"/>
			<point x="279" y="-578"/>
		</contour>
	</outline>
</glyph>
