<?xml version="1.0" encoding="UTF-8"?>
<glyph name="k3l3" format="2">
	<advance width="1643"/>
	<outline>
		<component base="l4" xOffset="1580" yOffset="60"/>
		<component base="k3"/>
	</outline>
	<lib>
		<dict>
			<key>org.fontforge.glyphclass</key>
			<string>baseligature</string>
		</dict>
	</lib>
</glyph>
