<?xml version="1.0" encoding="UTF-8"?>
<glyph name="rupee" format="2">
	<unicode hex="20B9"/>
	<advance height="2048" width="1196"/>
	<outline>
		<contour>
			<point x="778" y="-24" type="curve" smooth="yes"/>
			<point x="791" y="-24"/>
			<point x="809" y="-22"/>
			<point x="825" y="-16" type="curve" smooth="yes"/>
			<point x="844" y="-9"/>
			<point x="860" y="2"/>
			<point x="860" y="21" type="curve" smooth="yes"/>
			<point x="860" y="28"/>
			<point x="857" y="35"/>
			<point x="851" y="42" type="curve" smooth="yes"/>
			<point x="362" y="564" type="line"/>
			<point x="608" y="589"/>
			<point x="767" y="684"/>
			<point x="843" y="800" type="curve" smooth="yes"/>
			<point x="873" y="846"/>
			<point x="889" y="895"/>
			<point x="892" y="945" type="curve"/>
			<point x="1014" y="945" type="line" smooth="yes"/>
			<point x="1059" y="945"/>
			<point x="1096" y="965"/>
			<point x="1096" y="990" type="curve" smooth="yes"/>
			<point x="1096" y="1015"/>
			<point x="1059" y="1036"/>
			<point x="1014" y="1036" type="curve" smooth="yes"/>
			<point x="882" y="1036" type="line"/>
			<point x="872" y="1074"/>
			<point x="853" y="1111"/>
			<point x="827" y="1145" type="curve" smooth="yes"/>
			<point x="792" y="1191"/>
			<point x="744" y="1232"/>
			<point x="683" y="1266" type="curve"/>
			<point x="1014" y="1266" type="line" smooth="yes"/>
			<point x="1059" y="1266"/>
			<point x="1096" y="1286"/>
			<point x="1096" y="1311" type="curve" smooth="yes"/>
			<point x="1096" y="1337"/>
			<point x="1059" y="1357"/>
			<point x="1014" y="1357" type="curve" smooth="yes"/>
			<point x="182" y="1357" type="line" smooth="yes"/>
			<point x="137" y="1357"/>
			<point x="100" y="1337"/>
			<point x="100" y="1311" type="curve" smooth="yes"/>
			<point x="100" y="1286"/>
			<point x="137" y="1266"/>
			<point x="182" y="1266" type="curve" smooth="yes"/>
			<point x="285" y="1266" type="line" smooth="yes"/>
			<point x="480" y="1266"/>
			<point x="611" y="1196"/>
			<point x="677" y="1109" type="curve" smooth="yes"/>
			<point x="695" y="1086"/>
			<point x="709" y="1061"/>
			<point x="717" y="1036" type="curve"/>
			<point x="182" y="1036" type="line" smooth="yes"/>
			<point x="137" y="1036"/>
			<point x="100" y="1015"/>
			<point x="100" y="990" type="curve" smooth="yes"/>
			<point x="100" y="965"/>
			<point x="137" y="945"/>
			<point x="182" y="945" type="curve" smooth="yes"/>
			<point x="729" y="945" type="line"/>
			<point x="726" y="906"/>
			<point x="713" y="867"/>
			<point x="690" y="831" type="curve" smooth="yes"/>
			<point x="624" y="729"/>
			<point x="473" y="650"/>
			<point x="233" y="650" type="curve" smooth="yes"/>
			<point x="188" y="650"/>
			<point x="152" y="629"/>
			<point x="152" y="604" type="curve" smooth="yes"/>
			<point x="152" y="595"/>
			<point x="158" y="587"/>
			<point x="165" y="579" type="curve" smooth="yes"/>
			<point x="707" y="0" type="line" smooth="yes"/>
			<point x="721" y="-15"/>
			<point x="749" y="-24"/>
		</contour>
	</outline>
</glyph>
