<?xml version="1.0" encoding="UTF-8"?>
<glyph name="th1p4" format="2">
	<advance height="2048" width="2459"/>
	<outline>
		<contour>
			<point x="1902" y="909" type="curve" smooth="yes"/>
			<point x="2061" y="909"/>
			<point x="2221" y="832"/>
			<point x="2221" y="730" type="curve" smooth="yes"/>
			<point x="2221" y="678"/>
			<point x="2199" y="654"/>
			<point x="2145" y="654" type="curve" smooth="yes"/>
			<point x="2078" y="654"/>
			<point x="2007" y="683"/>
			<point x="1933" y="683" type="curve" smooth="yes"/>
			<point x="1892" y="683"/>
			<point x="1853" y="676"/>
			<point x="1816" y="654" type="curve" smooth="yes"/>
			<point x="1754" y="616"/>
			<point x="1729" y="553"/>
			<point x="1729" y="482" type="curve" smooth="yes"/>
			<point x="1729" y="407"/>
			<point x="1764" y="340"/>
			<point x="1830" y="303" type="curve" smooth="yes"/>
			<point x="1871" y="281"/>
			<point x="1912" y="274"/>
			<point x="1958" y="274" type="curve" smooth="yes"/>
			<point x="2020" y="274"/>
			<point x="2077" y="290"/>
			<point x="2121" y="290" type="curve" smooth="yes"/>
			<point x="2174" y="290"/>
			<point x="2220" y="261"/>
			<point x="2220" y="203" type="curve" smooth="yes"/>
			<point x="2220" y="112"/>
			<point x="2107" y="69"/>
			<point x="2025" y="69" type="curve" smooth="yes"/>
			<point x="1960" y="69"/>
			<point x="1919" y="74"/>
			<point x="1867" y="98" type="curve" smooth="yes"/>
			<point x="1853" y="104"/>
			<point x="1834" y="108"/>
			<point x="1816" y="108" type="curve" smooth="yes"/>
			<point x="1793" y="108"/>
			<point x="1769" y="102"/>
			<point x="1752" y="90" type="curve" smooth="yes"/>
			<point x="1740" y="81"/>
			<point x="1735" y="72"/>
			<point x="1735" y="63" type="curve" smooth="yes"/>
			<point x="1735" y="48"/>
			<point x="1747" y="35"/>
			<point x="1766" y="27" type="curve" smooth="yes"/>
			<point x="1838" y="-5"/>
			<point x="1932" y="-23"/>
			<point x="2025" y="-23" type="curve" smooth="yes"/>
			<point x="2170" y="-23"/>
			<point x="2379" y="22"/>
			<point x="2379" y="203" type="curve" smooth="yes"/>
			<point x="2379" y="320"/>
			<point x="2291" y="395"/>
			<point x="2177" y="395" type="curve" smooth="yes"/>
			<point x="2118" y="395"/>
			<point x="2059" y="377"/>
			<point x="2001" y="377" type="curve" smooth="yes"/>
			<point x="1936" y="377"/>
			<point x="1875" y="404"/>
			<point x="1875" y="479" type="curve" smooth="yes"/>
			<point x="1875" y="542"/>
			<point x="1917" y="576"/>
			<point x="1979" y="576" type="curve" smooth="yes"/>
			<point x="2043" y="576"/>
			<point x="2105" y="552"/>
			<point x="2173" y="552" type="curve" smooth="yes"/>
			<point x="2284" y="552"/>
			<point x="2370" y="609"/>
			<point x="2370" y="730" type="curve" smooth="yes"/>
			<point x="2370" y="957"/>
			<point x="2085" y="1000"/>
			<point x="1902" y="1000" type="curve" smooth="yes"/>
			<point x="1758" y="1000"/>
			<point x="1554" y="973"/>
			<point x="1462" y="860" type="curve"/>
			<point x="1364" y="971"/>
			<point x="1222" y="1000"/>
			<point x="1080" y="1000" type="curve" smooth="yes"/>
			<point x="1000" y="1000"/>
			<point x="928" y="988"/>
			<point x="852" y="962" type="curve"/>
			<point x="782" y="988"/>
			<point x="700" y="1000"/>
			<point x="625" y="1000" type="curve" smooth="yes"/>
			<point x="428" y="1000"/>
			<point x="241" y="901"/>
			<point x="149" y="724" type="curve" smooth="yes"/>
			<point x="103" y="637"/>
			<point x="80" y="535"/>
			<point x="80" y="430" type="curve" smooth="yes"/>
			<point x="80" y="266"/>
			<point x="140" y="90"/>
			<point x="287" y="1" type="curve" smooth="yes"/>
			<point x="312" y="-14"/>
			<point x="340" y="-24"/>
			<point x="368" y="-24" type="curve" smooth="yes"/>
			<point x="387" y="-24"/>
			<point x="406" y="-19"/>
			<point x="423" y="-9" type="curve" smooth="yes"/>
			<point x="438" y="0"/>
			<point x="445" y="11"/>
			<point x="445" y="22" type="curve" smooth="yes"/>
			<point x="445" y="35"/>
			<point x="436" y="47"/>
			<point x="419" y="56" type="curve" smooth="yes"/>
			<point x="289" y="123"/>
			<point x="243" y="293"/>
			<point x="243" y="430" type="curve" smooth="yes"/>
			<point x="243" y="527"/>
			<point x="265" y="620"/>
			<point x="305" y="698" type="curve" smooth="yes"/>
			<point x="365" y="815"/>
			<point x="490" y="909"/>
			<point x="625" y="909" type="curve" smooth="yes"/>
			<point x="661" y="909"/>
			<point x="695" y="905"/>
			<point x="726" y="897" type="curve"/>
			<point x="567" y="785"/>
			<point x="486" y="594"/>
			<point x="486" y="403" type="curve" smooth="yes"/>
			<point x="486" y="312"/>
			<point x="505" y="222"/>
			<point x="543" y="152" type="curve" smooth="yes"/>
			<point x="608" y="34"/>
			<point x="720" y="-24"/>
			<point x="851" y="-24" type="curve" smooth="yes"/>
			<point x="984" y="-24"/>
			<point x="1096" y="34"/>
			<point x="1161" y="153" type="curve" smooth="yes"/>
			<point x="1200" y="223"/>
			<point x="1220" y="311"/>
			<point x="1220" y="403" type="curve" smooth="yes"/>
			<point x="1220" y="591"/>
			<point x="1137" y="790"/>
			<point x="978" y="897" type="curve"/>
			<point x="1012" y="905"/>
			<point x="1046" y="909"/>
			<point x="1080" y="909" type="curve" smooth="yes"/>
			<point x="1260" y="908"/>
			<point x="1377" y="792"/>
			<point x="1377" y="609" type="curve" smooth="yes"/>
			<point x="1377" y="22" type="line" smooth="yes"/>
			<point x="1377" y="-3"/>
			<point x="1413" y="-24"/>
			<point x="1458" y="-24" type="curve" smooth="yes"/>
			<point x="1503" y="-24"/>
			<point x="1540" y="-3"/>
			<point x="1540" y="22" type="curve" smooth="yes"/>
			<point x="1540" y="614" type="line" smooth="yes"/>
			<point x="1540" y="852"/>
			<point x="1711" y="909"/>
		</contour>
		<contour>
			<point x="851" y="67" type="curve" smooth="yes"/>
			<point x="781" y="67"/>
			<point x="730" y="120"/>
			<point x="699" y="178" type="curve" smooth="yes"/>
			<point x="665" y="240"/>
			<point x="648" y="320"/>
			<point x="648" y="403" type="curve" smooth="yes"/>
			<point x="648" y="565"/>
			<point x="716" y="743"/>
			<point x="852" y="839" type="curve"/>
			<point x="989" y="743"/>
			<point x="1057" y="567"/>
			<point x="1057" y="403" type="curve" smooth="yes"/>
			<point x="1057" y="320"/>
			<point x="1040" y="241"/>
			<point x="1006" y="179" type="curve" smooth="yes"/>
			<point x="974" y="121"/>
			<point x="922" y="67"/>
		</contour>
	</outline>
</glyph>
