<?xml version="1.0" encoding="UTF-8"?>
<glyph name="Ycircumflex" format="2">
	<unicode hex="0176"/>
	<advance width="1256"/>
	<outline>
		<component base="Y"/>
		<component base="asciicircum" xOffset="268" yOffset="384"/>
	</outline>
</glyph>
