<?xml version="1.0" encoding="UTF-8"?>
<glyph name="colon" format="2">
	<unicode hex="003A"/>
	<advance height="2048" width="350"/>
	<outline>
		<contour>
			<point x="175" y="662" type="curve" smooth="yes"/>
			<point x="218" y="662"/>
			<point x="250" y="700"/>
			<point x="250" y="737" type="curve" smooth="yes"/>
			<point x="250" y="774"/>
			<point x="218" y="812"/>
			<point x="175" y="812" type="curve" smooth="yes"/>
			<point x="132" y="812"/>
			<point x="100" y="774"/>
			<point x="100" y="737" type="curve" smooth="yes"/>
			<point x="100" y="700"/>
			<point x="132" y="662"/>
		</contour>
		<contour>
			<point x="175" y="150" type="curve" smooth="yes"/>
			<point x="218" y="150"/>
			<point x="250" y="188"/>
			<point x="250" y="225" type="curve" smooth="yes"/>
			<point x="250" y="262"/>
			<point x="218" y="300"/>
			<point x="175" y="300" type="curve" smooth="yes"/>
			<point x="132" y="300"/>
			<point x="100" y="262"/>
			<point x="100" y="225" type="curve" smooth="yes"/>
			<point x="100" y="188"/>
			<point x="132" y="150"/>
		</contour>
	</outline>
</glyph>
