<?xml version="1.0" encoding="UTF-8"?>
<glyph name="k1shr1" format="2">
	<advance width="2858"/>
	<outline>
		<component base="k1sh"/>
		<component base="vocalic_r_sign_drop" xOffset="1791"/>
	</outline>
</glyph>
