<?xml version="1.0" encoding="UTF-8"?>
<!DOCTYPE svg PUBLIC "-//W3C//DTD SVG 1.1//EN" "http://www.w3.org/Graphics/SVG/1.1/DTD/svg11.dtd">
<!-- Creator: CorelDRAW X8 -->
<svg xmlns="http://www.w3.org/2000/svg" xml:space="preserve" width="1742px" height="1486px" version="1.1" style="shape-rendering:geometricPrecision; text-rendering:geometricPrecision; image-rendering:optimizeQuality; fill-rule:evenodd; clip-rule:evenodd"
viewBox="0 0 1742 1486"
 xmlns:xlink="http://www.w3.org/1999/xlink">
 <defs>
  <style type="text/css">
   <![CDATA[
    .fil0 {fill:#2B2A29;fill-rule:nonzero}
   ]]>
  </style>
 </defs>
 <g id="Layer_x0020_1">
  <metadata id="CorelCorpID_0Corel-Layer"/>
  <path class="fil0" d="M863 932c-185,0 -244,-191 -250,-392l500 0c-4,198 -62,392 -250,392zm-543 1c-33,0 -70,-17 -100,-46 -40,-39 -58,-91 -58,-143 0,-53 21,-112 59,-149 49,-50 111,-55 148,-55l82 0c1,47 5,93 13,137 3,18 5,36 5,54 0,57 -16,114 -54,155 -24,26 -59,47 -95,47zm792 -484l-498 0c10,-176 68,-358 249,-358 173,0 241,168 249,358zm-246 1037c91,0 180,-6 269,-25 54,-11 107,-26 163,-46 252,-89 444,-271 444,-548 0,-59 -11,-115 -32,-166 -59,-146 -198,-252 -396,-252l-39 0c-5,-98 -23,-193 -66,-270 -59,-107 -167,-179 -346,-179 -179,0 -286,72 -346,181 -42,75 -60,170 -65,268l-84 0c-88,0 -206,19 -289,102 -52,52 -79,121 -79,195 0,67 25,134 78,186 62,60 151,92 243,92 109,0 193,-43 241,-119 63,73 159,119 301,119 177,0 283,-71 343,-176 49,-86 67,-196 70,-308l38 0c111,0 196,76 238,181 19,46 28,100 28,153 0,233 -117,377 -333,464 3,-8 4,-16 4,-25 0,-88 -119,-135 -196,-153 -53,-12 -114,-19 -189,-19 -81,0 -152,8 -208,23 -121,31 -182,90 -182,149 0,58 59,116 177,148 68,19 144,25 213,25zm0 -84c-165,0 -242,-45 -242,-89 0,-45 86,-88 242,-88 155,0 237,46 237,88 0,42 -74,89 -237,89z"/>
 </g>
</svg>
