<?xml version="1.0" encoding="UTF-8"?>
<!DOCTYPE svg PUBLIC "-//W3C//DTD SVG 1.1//EN" "http://www.w3.org/Graphics/SVG/1.1/DTD/svg11.dtd">
<!-- Creator: CorelDRAW X8 -->
<svg xmlns="http://www.w3.org/2000/svg" xml:space="preserve" width="936px" height="1405px" version="1.1" style="shape-rendering:geometricPrecision; text-rendering:geometricPrecision; image-rendering:optimizeQuality; fill-rule:evenodd; clip-rule:evenodd"
viewBox="0 0 936 1405"
 xmlns:xlink="http://www.w3.org/1999/xlink">
 <defs>
  <style type="text/css">
   <![CDATA[
    .fil0 {fill:#EF7F1A;fill-rule:nonzero}
   ]]>
  </style>
 </defs>
 <g id="Layer_x0020_1">
  <metadata id="CorelCorpID_0Corel-Layer"/>
  <path class="fil0" d="M466 1146c32,0 99,-15 98,-56l-2 -68c-1,-49 6,-98 33,-143 30,-49 84,-98 139,-148 109,-100 202,-201 202,-359 0,-244 -235,-372 -459,-372 -144,0 -293,35 -389,148 -60,70 -88,162 -88,252 0,41 69,55 101,55 33,0 101,-14 101,-56 0,-72 21,-148 69,-204 52,-61 126,-84 206,-84 147,0 257,120 257,261 0,127 -73,211 -163,292 -56,51 -126,113 -166,176 -37,58 -46,124 -46,191 0,20 1,41 2,61 3,42 72,55 105,54zm-5 259c54,0 102,-41 102,-102 0,-62 -48,-103 -102,-103 -54,0 -103,41 -103,103 0,61 49,102 103,102z"/>
 </g>
</svg>
