<?xml version="1.0" encoding="UTF-8"?>
<glyph name="ngk1" format="2">
	<advance height="2048" width="1927"/>
	<outline>
		<contour>
			<point x="964" y="-24" type="curve" smooth="yes"/>
			<point x="1114" y="-24"/>
			<point x="1248" y="23"/>
			<point x="1325" y="156" type="curve" smooth="yes"/>
			<point x="1376" y="243"/>
			<point x="1392" y="351"/>
			<point x="1396" y="449" type="curve"/>
			<point x="1448" y="449" type="line" smooth="yes"/>
			<point x="1509" y="449"/>
			<point x="1566" y="430"/>
			<point x="1604" y="382" type="curve" smooth="yes"/>
			<point x="1634" y="345"/>
			<point x="1645" y="304"/>
			<point x="1645" y="257" type="curve" smooth="yes"/>
			<point x="1645" y="217"/>
			<point x="1631" y="176"/>
			<point x="1607" y="144" type="curve" smooth="yes"/>
			<point x="1584" y="114"/>
			<point x="1550" y="89"/>
			<point x="1510" y="88" type="curve" smooth="yes"/>
			<point x="1483" y="87"/>
			<point x="1461" y="99"/>
			<point x="1430" y="99" type="curve" smooth="yes"/>
			<point x="1397" y="99"/>
			<point x="1362" y="90"/>
			<point x="1342" y="70" type="curve" smooth="yes"/>
			<point x="1333" y="61"/>
			<point x="1330" y="52"/>
			<point x="1330" y="44" type="curve" smooth="yes"/>
			<point x="1330" y="21"/>
			<point x="1357" y="2"/>
			<point x="1383" y="-5" type="curve" smooth="yes"/>
			<point x="1426" y="-17"/>
			<point x="1466" y="-23"/>
			<point x="1510" y="-23" type="curve" smooth="yes"/>
			<point x="1602" y="-23"/>
			<point x="1697" y="8"/>
			<point x="1764" y="71" type="curve" smooth="yes"/>
			<point x="1818" y="121"/>
			<point x="1847" y="186"/>
			<point x="1847" y="259" type="curve" smooth="yes"/>
			<point x="1847" y="350"/>
			<point x="1811" y="426"/>
			<point x="1736" y="480" type="curve" smooth="yes"/>
			<point x="1656" y="539"/>
			<point x="1547" y="560"/>
			<point x="1448" y="560" type="curve" smooth="yes"/>
			<point x="1394" y="560" type="line"/>
			<point x="1389" y="647"/>
			<point x="1372" y="740"/>
			<point x="1328" y="817" type="curve" smooth="yes"/>
			<point x="1251" y="952"/>
			<point x="1116" y="1000"/>
			<point x="964" y="1000" type="curve" smooth="yes"/>
			<point x="860" y="1000"/>
			<point x="755" y="977"/>
			<point x="675" y="909" type="curve"/>
			<point x="608" y="972"/>
			<point x="512" y="1000"/>
			<point x="421" y="1000" type="curve" smooth="yes"/>
			<point x="329" y="1000"/>
			<point x="231" y="972"/>
			<point x="163" y="911" type="curve" smooth="yes"/>
			<point x="111" y="865"/>
			<point x="80" y="804"/>
			<point x="80" y="735" type="curve" smooth="yes"/>
			<point x="80" y="664"/>
			<point x="111" y="595"/>
			<point x="164" y="547" type="curve" smooth="yes"/>
			<point x="183" y="530"/>
			<point x="204" y="516"/>
			<point x="226" y="503" type="curve"/>
			<point x="203" y="490"/>
			<point x="181" y="474"/>
			<point x="162" y="455" type="curve" smooth="yes"/>
			<point x="109" y="403"/>
			<point x="80" y="333"/>
			<point x="80" y="259" type="curve" smooth="yes"/>
			<point x="80" y="188"/>
			<point x="109" y="121"/>
			<point x="161" y="71" type="curve" smooth="yes"/>
			<point x="229" y="6"/>
			<point x="327" y="-24"/>
			<point x="421" y="-24" type="curve" smooth="yes"/>
			<point x="513" y="-24"/>
			<point x="605" y="4"/>
			<point x="664" y="77" type="curve"/>
			<point x="745" y="1"/>
			<point x="854" y="-24"/>
		</contour>
		<contour>
			<point x="533" y="560" type="curve"/>
			<point x="469" y="560" type="line" smooth="yes"/>
			<point x="418" y="560"/>
			<point x="375" y="570"/>
			<point x="337" y="605" type="curve" smooth="yes"/>
			<point x="301" y="638"/>
			<point x="281" y="687"/>
			<point x="282" y="735" type="curve" smooth="yes"/>
			<point x="282" y="780"/>
			<point x="301" y="823"/>
			<point x="336" y="853" type="curve" smooth="yes"/>
			<point x="358" y="873"/>
			<point x="389" y="889"/>
			<point x="420" y="889" type="curve" smooth="yes"/>
			<point x="450" y="889"/>
			<point x="481" y="872"/>
			<point x="502" y="851" type="curve" smooth="yes"/>
			<point x="537" y="817"/>
			<point x="552" y="767"/>
			<point x="552" y="718" type="curve" smooth="yes"/>
			<point x="552" y="703"/>
			<point x="550" y="687"/>
			<point x="547" y="672" type="curve" smooth="yes"/>
			<point x="539" y="635"/>
			<point x="535" y="598"/>
		</contour>
		<contour>
			<point x="1192" y="560" type="curve"/>
			<point x="735" y="560" type="line"/>
			<point x="745" y="714"/>
			<point x="798" y="889"/>
			<point x="964" y="889" type="curve" smooth="yes"/>
			<point x="1128" y="889"/>
			<point x="1182" y="713"/>
		</contour>
		<contour>
			<point x="420" y="87" type="curve" smooth="yes"/>
			<point x="390" y="87"/>
			<point x="358" y="106"/>
			<point x="337" y="126" type="curve" smooth="yes"/>
			<point x="300" y="161"/>
			<point x="282" y="210"/>
			<point x="282" y="260" type="curve" smooth="yes"/>
			<point x="282" y="310"/>
			<point x="303" y="365"/>
			<point x="339" y="401" type="curve" smooth="yes"/>
			<point x="375" y="436"/>
			<point x="419" y="449"/>
			<point x="469" y="449" type="curve" smooth="yes"/>
			<point x="532" y="449" type="line"/>
			<point x="533" y="407"/>
			<point x="537" y="366"/>
			<point x="544" y="325" type="curve" smooth="yes"/>
			<point x="547" y="308"/>
			<point x="549" y="291"/>
			<point x="549" y="273" type="curve" smooth="yes"/>
			<point x="549" y="220"/>
			<point x="534" y="165"/>
			<point x="497" y="126" type="curve" smooth="yes"/>
			<point x="478" y="107"/>
			<point x="449" y="87"/>
		</contour>
		<contour>
			<point x="964" y="87" type="curve" smooth="yes"/>
			<point x="790" y="87"/>
			<point x="740" y="282"/>
			<point x="734" y="449" type="curve"/>
			<point x="1193" y="449" type="line"/>
			<point x="1187" y="282"/>
			<point x="1138" y="87"/>
		</contour>
	</outline>
</glyph>
