<?xml version="1.0" encoding="UTF-8"?>
<glyph name="th1s1u2" format="2">
	<advance width="2881.0630703439"/>
	<outline>
		<component base="th1s1"/>
		<component base="uu_sign_drop" xOffset="2070" yOffset="-2"/>
	</outline>
	<lib>
		<dict>
			<key>org.fontforge.glyphclass</key>
			<string>baseligature</string>
		</dict>
	</lib>
</glyph>
